{
  "images" : [
    {
      "idiom" : "iphone",
      "scale" : "2x",
      "size" : "20x20"
    },
    {
      "idiom" : "iphone",
      "scale" : "3x",
      "size" : "20x20"
    },
    {
      "idiom" : "iphone",
      "scale" : "2x",
      "size" : "29x29"
    },
    {
      "idiom" : "iphone",
      "scale" : "3x",
      "size" : "29x29"
    },
    {
      "filename" : "%E2%80%94Pngtree%E2%80%94alarm%20clock%20icon%20alarm%20clock_5299951-8.jpeg",
      "idiom" : "iphone",
      "scale" : "2x",
      "size" : "40x40"
    },
    {
      "filename" : "%E2%80%94Pngtree%E2%80%94alarm%20clock%20icon%20alarm%20clock_5299951-4.jpeg",
      "idiom" : "iphone",
      "scale" : "3x",
      "size" : "40x40"
    },
    {
      "filename" : "%E2%80%94Pngtree%E2%80%94alarm%20clock%20icon%20alarm%20clock_5299951-5.jpeg",
      "idiom" : "iphone",
      "scale" : "2x",
      "size" : "60x60"
    },
    {
      "filename" : "%E2%80%94Pngtree%E2%80%94alarm%20clock%20icon%20alarm%20clock_5299951-1.jpeg",
      "idiom" : "iphone",
      "scale" : "3x",
      "size" : "60x60"
    },
    {
      "idiom" : "ipad",
      "scale" : "1x",
      "size" : "20x20"
    },
    {
      "idiom" : "ipad",
      "scale" : "2x",
      "size" : "20x20"
    },
    {
      "idiom" : "ipad",
      "scale" : "1x",
      "size" : "29x29"
    },
    {
      "idiom" : "ipad",
      "scale" : "2x",
      "size" : "29x29"
    },
    {
      "filename" : "%E2%80%94Pngtree%E2%80%94alarm%20clock%20icon%20alarm%20clock_5299951-9.jpeg",
      "idiom" : "ipad",
      "scale" : "1x",
      "size" : "40x40"
    },
    {
      "filename" : "%E2%80%94Pngtree%E2%80%94alarm%20clock%20icon%20alarm%20clock_5299951-6.jpeg",
      "idiom" : "ipad",
      "scale" : "2x",
      "size" : "40x40"
    },
    {
      "filename" : "%E2%80%94Pngtree%E2%80%94alarm%20clock%20icon%20alarm%20clock_5299951-7.jpeg",
      "idiom" : "ipad",
      "scale" : "1x",
      "size" : "76x76"
    },
    {
      "filename" : "%E2%80%94Pngtree%E2%80%94alarm%20clock%20icon%20alarm%20clock_5299951-3.jpeg",
      "idiom" : "ipad",
      "scale" : "2x",
      "size" : "76x76"
    },
    {
      "filename" : "%E2%80%94Pngtree%E2%80%94alarm%20clock%20icon%20alarm%20clock_5299951-2.jpeg",
      "idiom" : "ipad",
      "scale" : "2x",
      "size" : "83.5x83.5"
    },
    {
      "filename" : "%E2%80%94Pngtree%E2%80%94alarm%20clock%20icon%20alarm%20clock_5299951.jpeg",
      "idiom" : "ios-marketing",
      "scale" : "1x",
      "size" : "1024x1024"
    }
  ],
  "info" : {
    "author" : "xcode",
    "version" : 1
  }
}
